{
    "type": "service_account",
    "project_id": "famstar-debug",
    "private_key_id": "1a660d61199afb01f3440df2c96a383d5376611e",
    "private_key": "-----BEGIN PRIVATE KEY-----\nMIIEvQIBADANBgkqhkiG9w0BAQEFAASCBKcwggSjAgEAAoIBAQCaxDTAn/xi2gFt\naaBY88j2fniQDmGDh5kCJMK2z45KDtkippX3d4bKy0MOrfPwBzYr2/BiH1oTr9cD\nuC90vFUYc3g2MbepOhEwBqMSfoUdUik0Q9yO6i+7CC8LjIdKPKkksTvi5gTrmumc\nRwsi83w8fpGlxIrQ8vt4XJVpmGFwY62ObPaOJN3ylXrZeOWkiKOAWx+nosFzuc17\nyRx9kkWjnyJkGaoIt7CGIQtbeHN9h62IFJ0k0ugvByxas+3BSA20AvKGcwPRGcPT\nX6kxU+DwtPGCPDVZiglWldCudhlTn+Tdffu002PO5aM8MOP8BZME1oX91JE5o+vi\nSy59tJO1AgMBAAECggEAP7RDgoZX/Nh/fencdsDiF5Q3TBSfTuShtqArBdSpXRJ/\njiPD1vj8Ir1H/OLdZg+R3LvLVphRG4lll8JYxlQ/MrFU6fnM/3tHV91jgllRsaAA\nFeNZBfqfav0TYE2X4pbViKTrYZoMrG43enxDuT9ABCaVDQa5nQhnOkPhvHVcpkW9\nWuvGqR/PTvba5Lv42pnuPfrF28ewyi4Muccv4Qf9pUsAep96zx95wylv1ctjjjDz\nmR8GKO6WFfJ8fdBSxOjMlw44GN6moPjsCQyngHo9WZkfro33GUeQa/NHEWSFU0mz\nZVkJfPQHXeZTfqtS1MGqaFpotom4q2gH36OdFYncgQKBgQDNCP6udhc/z4gFmEdA\n1fm/vO5eND+/vgUaS55pNL92Fe3Ifg8mlTfpvuiKI6hhbFhbjWWpVt3jrxvJs++/\nVn5cbT0SxMT3KoQFmo7El+DYGvZt33O7NBN+L4jnlIQ/c5V11nqsKoom/3g3X5UB\nbfrcQ/II4s3hqDVI3JifacYfLwKBgQDBPHYphyNAKRFP8beWn50UH/X7PTQe/zTw\nJyvSyfaoQMfEvVlEJc/c6+9xIWLPUaxrFr+pU/xQrf9Ayd8NHWRm4HuiCvQ0IeHX\ntk3Z2JkDybAAX9g29wNbl/u5YTLtFaYoILUf9TQ+KJQggJscjnRmypCDBK7HW6y1\nK4xTn0DiWwKBgQC8MOpaRUfXqOuHfxq/dubyRz5etwRgQNA8L3YpyGGHyF7lLFdJ\nqaKVaEXWLR5qtWBwP9s0z+eACQSvYPnIHGKFATsSVAsZdiuRXSh3Z5PXpv/TH0sB\nY64UnxrAvD+aYcOoUgFsrur5GnlEEfYZRtH/hFnOMCaaXaLyyo9HmnVfvwKBgH4Q\nNrpC6lFaOWwhMnc2bCCL9UrRk+ZA8kVWGLXsglkj4e/M46ac0G29EjmI4VCFZOl8\nLs+F9g6gZOzchgKlUTH4c0+0u7oi/JZg3YsoTjL1ajfkT0cUgQFJNrSq37FiNULq\ni59stYdzq6dEn2zS1seUkRCYhnmSqiqLXYHUXF0PAoGAX7Ss0Iyh6QjHdk+8t21i\n1ys1g2RcXARw//dzFGPSRiJ09L5tDUWAzmafwW00Oe2JI5WeRSOGpvYWww6ieyFk\nkuqNrTE1P/UDepu5ym9LFhANyaT1hAB8rdQUhP99CCHdMc+tB9mhA3jCBIxb1sFe\nJtnkbYjwVHGsP+zO1bqZs8I=\n-----END PRIVATE KEY-----\n",
    "client_email": "firebase-adminsdk-ct8y8@famstar-debug.iam.gserviceaccount.com",
    "client_id": "105893821573303394914",
    "auth_uri": "https://accounts.google.com/o/oauth2/auth",
    "token_uri": "https://oauth2.googleapis.com/token",
    "auth_provider_x509_cert_url": "https://www.googleapis.com/oauth2/v1/certs",
    "client_x509_cert_url": "https://www.googleapis.com/robot/v1/metadata/x509/firebase-adminsdk-ct8y8%40famstar-debug.iam.gserviceaccount.com"
}
